[
    {
        "model": "admetters",
        "data": {
            "userUUID": "00000000-c1eb-41b5-85e7-256b0568538b",
            "type": 1,
            "metter": "1.123456724542723583"
        }
    }
]
