[
  {
    "model": "contents",
    "data": {
      "uuid": "00000000-00A0-0000-0000-000000000000",
      "hash": "00A0000000000000000000000000000000000000",
      "title": "Waiting for update",
      "body": "Fake body large large large large",
      "categoryId": 2,
      "downloadStatus": 1,
      "authorId": 100,
      "seederFee": 43,
      "authorFee": 60,
      "status": 32,
      "moderationStatus": 80,
      "moderatorId": 101,
      "versionStatus": 16
    }
  },
      {
        "model": "contentversion",
        "data": {
          "contentUUID": "00000000-00A0-0000-0000-000000000000",
          "uuid":  "00000000-00A1-0000-0000-000000000000",
          "title": "Fake content modified",
          "body": "Fake body large large large large",
          "categoryId": 2,
          "seederFee": 43,
          "authorFee": 60,
          "status": 32
        }
      },
  {
    "model": "contents",
    "data": {
      "uuid": "00000000-00A0-0000-0000-000000000001",
      "hash": "00A0000000000000000000000000000000000001",
      "title": "Apporbed",
      "body": "Fake body large large large large",
      "categoryId": 2,
      "downloadStatus": 2,
      "authorId": 100,
      "seederFee": 43,
      "authorFee": 60,
      "status": 32,
      "moderationStatus": 80,
      "moderatorId": 101
    }
  },
  {
    "model": "contents",
    "data": {
      "uuid": "00000000-00A0-0000-0000-000000000002",
      "hash": "00A0000000000000000000000000000000000002",
      "title": "to approbed",
      "body": "Fake body large large large large",
      "categoryId": 2,
      "downloadStatus": 5,
      "authorId": 100,
      "seederFee": 43,
      "authorFee": 60,
      "status": 32,
      "moderationStatus": 32,
      "moderatorId": 101
    }
  }
]
