[
  {
    "model": "contents",
    "data": {
      "uuid": "00000000-0014-0000-0000-000000000000",
      "hash": "0014000000000000000000000000000000000000",
      "categoryId": 2,
      "authorId": 100,
      "seederFee": 43,
      "authorFee": 60,
      "audioLang": "es",
      "rating": 1,
      "duration": 120,
      "status": 32,
      "moderationStatus": 80,
      "moderatorId": 101
    }
  },
  {
    "model": "metadata",
    "data": {
      "uuid": "7ba4f5d7-1d41-431f-89a9-530fcce38b00",
      "entityType": "2",
      "entityId": "00000000-0014-0000-0000-000000000000",
      "lang": "en",
      "title": "Fisrt title",
      "body": "First body"
    }
  },

  {
    "model": "contentversion",
    "data": {
      "contentUUID": "00000000-0014-0000-0000-000000000000",
      "uuid":  "00000000-0015-0000-0000-000000000000",
      "audioLang": "en",
      "categoryId": 5,
      "rating": 3,
      "duration": 120,
      "seederFee": 43,
      "authorFee": 60,
      "status": 32
    }
  },
  {
    "model": "metadata",
    "data": {
      "uuid": "7ba4f5d7-1d41-431f-89a9-530fcce38b01",
      "entityType": "3",
      "entityId":  "00000000-0015-0000-0000-000000000000",
      "lang": "en",
      "title": "Fake content modified",
      "body": "Fake body large large large large"
    }
  },

  {
    "model": "contents",
    "data": {
      "uuid": "00000000-0024-0000-0000-000000000000",
      "hash": "0024000000000000000000000000000000000000",
      "categoryId": 2,
      "authorId": 100,
      "seederFee": 43,
      "authorFee": 60,
      "audioLang": "es",
      "rating": 1,
      "duration": 120,
      "status": 32,
      "moderationStatus": 80,
      "moderatorId": 101
    }
  },
  {
    "model": "metadata",
    "data": {
      "uuid": "7ba4f5d7-1d41-431f-89a9-530fcce38b02",
      "entityType": "2",
      "entityId": "00000000-0024-0000-0000-000000000000",
      "lang": "en",
      "title": "Fisrt title",
      "body": "First body"
    }
  },

  {
    "model": "contentversion",
    "data": {
      "contentUUID": "00000000-0024-0000-0000-000000000000",
      "uuid":  "00000000-0025-0000-0000-000000000000",
      "audioLang": "es",
      "categoryId": 2,
      "rating": 1,
      "duration": 120,
      "seederFee": 43,
      "authorFee": 60,
      "status": 32
    }
  },
  {
    "model": "metadata",
    "data": {
      "uuid": "7ba4f5d7-1d41-431f-89a9-530fcce38b03",
      "entityType": "3",
      "entityId":  "00000000-0025-0000-0000-000000000000",
      "lang": "en",
      "title": "Fisrt title",
      "body": "First body"
    }
  }
]
