[
    {
        "model": "contents",
        "saveOptions": {
            "silent": true
        },
        "data": {
            "createdAt": "2019-08-28T13:44:13.219Z",
            "updatedAt": "2019-08-28T13:44:13.219Z",
            "uuid": "3000000-c3d1-0000-0000-000000000001",
            "hash": "ebff5c06d2b76d524833329c39ffaf4847957ee4",
            "title": "S01E01",
            "credits": "Warner Bross",
            "body": "The plot takes place at the beginning of the 20th centur...",
            "serieUUID": "0000000-c3d1-0000-0000-000000000001",
            "seasonUUID": "1000000-c3d1-0000-0000-000000000001",
            "duration": 3645,
            "downloadStatus": 1,
            "categoryId": 2,
            "authorId": 100,
            "seederFee": 43,
            "authorFee": 60,
            "status": 32,
            "moderationStatus": 80,
            "payType": 1,
            "privacy": 2,
            "releaseDate": "1111-11-11 00:00:00:47.972Z"
        }
    },
        {
            "model": "metadata",
            "data": {
                "uuid": "5000000-c3d1-0000-0001-000000000001",
                "entityType": 2,
                "entityId": "3000000-c3d1-0000-0000-000000000001",
                "lang": "es",
                "title": "Titulo español",
                "body": "Body spañol"
            }
        },
        {
            "model": "metadata",
            "data": {
                "uuid": "5000000-c3d1-0000-0001-000000000002",
                "entityType": 2,
                "entityId": "3000000-c3d1-0000-0000-000000000001",
                "lang": "en",
                "title": "English title",
                "body": "English body"
            }
        },
        {
            "model": "media",
            "data": {
              "id": 30,
              "uuid": "3000000-c3d1-0000-0000-000000000001",
              "type": 1,
              "name": "Imagen 30",
              "url": "http://image-bucket.com/img30.jpg",
              "order": 1
            }
        },
        {
            "model": "media",
            "data": {
              "id": 31,
              "uuid": "3000000-c3d1-0000-0000-000000000001",
              "type": 2,
              "name": "Imagen 31",
              "url": "http://image-bucket.com/img31.jpg",
              "order": 2
            }
        }
]
