[
    {
        "model": "contents",
        "data": {
          "uuid": "7cdeff76-c4df-4bf2-a810-c0f054033a28",
          "hash": "ebff5c06d2b76d524833329c39ffaf4847957ee4",
          "categoryId": 2,
          "authorId": 103,
          "seederFee": 43,
          "authorFee": 60,
          "status": 32,
          "moderationStatus": 80,
          "payType": 1,
          "privacy": 2
        }
    },
    {
      "model": "metadata",
      "data": {
        "uuid": "7ba4f5d7-1d41-431f-89a9-530fcce38b00",
        "entityType": "2",
        "entityId": "7cdeff76-c4df-4bf2-a810-c0f054033a28",
        "title": "Fullmetal Alchemist (2017)",
        "body": "The plot takes place at the beginning of the 20th century, in a reality where alchemy is real, extremely developed and respected. The plot features brothers Edward and Alphonse Elric who, after attempting the forbidden technique of human transmutation, suffer the consequences. Alphonse loses his entire body while Edward loses his left leg. Edward then sacrifices his right arm to save his brother's soul by attaching it to a metal suit of armor. Edward is then given mechanical prosthetics known as \"automail\" in place of his missing arm and leg. Upon acceptance into the State Alchemists, he is given the nickname \"Fullmetal Alchemist\", all while searching with Alphonse for the legendary philosopher's stone, that will repair their bodies.",
        "lang": "en"
      }
    },
        {
            "model": "geoblocking",
            "data": {
                "entityType": 16,
                "targetUUID": "7cdeff76-c4df-4bf2-a810-c0f054033a28",
                "type": 16,
                "countries": [
                    10,
                    41
                ]
            }
        },
    {
        "model": "contents",
        "data": {
            "uuid": "7cdeff76-abcd-4bf2-a810-c0f054033a28",
            "hash": "ebff5c06d2b76d524833329c39ffaf4847957ee2",
            "categoryId": 2,
            "authorId": 103,
            "seederFee": 43,
            "authorFee": 60,
            "status": 16,
            "moderationStatus": 32,
            "downloadStatus": 10
        }
    },
    {
      "model": "metadata",
      "data": {
        "uuid": "7ba4f5d7-1d41-431f-89a9-530fcce38b01",
        "entityType": "2",
        "entityId": "7cdeff76-abcd-4bf2-a810-c0f054033a28",
        "title": "Rocky III",
        "body": "After winning the ultimate title and being the world champion, Rocky falls into a hole and finds himself picked up by a former enemy.",
        "lang": "en"
      }
    }
]
