[
    {
        "model": "contents",
        "data": {
            "uuid": "1234ff76-1010-4bf2-a810-c0f054033a28",
            "hash": "10105c06d2b76d524833329c39ffaf4847957ee3",
            "title": "Rocky III",
            "body": "After winning the ultimate title and being the world champion, Rocky falls into a hole and finds himself picked up by a former enemy.",
            "categoryId": 2,
            "authorId": 103,
            "seederFee": 43,
            "authorFee": 60,
            "status": 32,
            "moderationStatus": 96,
            "downloadStatus": 10
        }
    },
    {
        "model": "media",
        "data": {
          "id": 1,
          "uuid": "1234ff76-1010-4bf2-a810-c0f054033a28",
          "type": 1,
          "name": "Imagen 1",
          "url": "http://image-bucket.com/content-media/img1.jpg"
        }
    },
    {
        "model": "media",
        "data": {
          "id": 2,
          "uuid": "1234ff76-1010-4bf2-a810-c0f054033a28",
          "type": 2,
          "name": "Imagen 2",
          "url": "http://image-bucket.com/content-media/img1.jpg"
        }
    },
    {
        "model": "media",
        "data": {
          "id": 3,
          "uuid": "1234ff76-1010-4bf2-a810-c0f054033a28",
          "type": 2,
          "name": "Imagen 3",
          "url": "http://image-bucket.com/content-media/img1.jpg"
        }
    },{
        "model": "contents",
        "data": {
            "uuid": "1234ff76-1010-4bf2-a810-c0f054033a29",
            "hash": "10105c06d2b76d524833329c39ffaf4847957ee4",
            "title": "Rocky IV",
            "body": "After winning the ultimate title and being the world champion, Rocky falls into a hole and finds himself picked up by a former enemy.",
            "categoryId": 2,
            "authorId": 103,
            "seederFee": 43,
            "authorFee": 60,
            "status": 32,
            "moderationStatus": 96,
            "downloadStatus": 10
        }
    },
        {
            "model": "media",
            "data": {
              "id": 10,
              "uuid": "1234ff76-1010-4bf2-a810-c0f054033a29",
              "type": 1,
              "name": "Imagen 10",
              "url": "http://image-bucket.com/content-media/img1.jpg"
            }
        },
        {
            "model": "media",
            "data": {
              "id": 11,
              "uuid": "1234ff76-1010-4bf2-a810-c0f054033a29",
              "type": 2,
              "name": "Imagen 11",
              "url": "http://image-bucket.com/content-media/img1.jpg"
            }
        },
        {
            "model": "tempmedia",
            "data": {
              "id": 1,
              "hash": "10105c06d2b76d524833329c39ffaf4847957ee4",
              "userId": 103,
              "type": 2,
              "name": "Imagen n1",
              "url": "http://image-bucket.com/content-media/img1.jpg"
            }
        },
        {
            "model": "tempmedia",
            "data": {
              "id": 2,
              "hash": "10105c06d2b76d524833329c39ffaf4847957ee4",
              "userId": 103,
              "type": 1,
              "name": "Imagen n2",
              "url": "http://image-bucket.com/content-media/img1.jpg"
            }
        }
]
