[
  {
    "model": "contents",
    "data": {
      "uuid": "41a0ff76-a4df-2bf2-a810-c0f054033a28",
      "hash": "41a05c06d2b76d2248f3329c39ffaf4847957ee4",
      "title": "Fake content",
      "body": "Fake body large large large large",
      "categoryId": 2,
      "authorId": 100,
      "seederFee": 43,
      "authorFee": 60,
      "status": 32,
      "moderationStatus": 80,
      "moderatorId": 101
    }
  },
  {
    "model": "contents",
    "data": {
      "uuid": "41a0ff76-c4df-4bf2-a810-c0f054033a29",
      "hash": "41a05c06d2b76d524833329c39ffaf4847957ee5",
      "title": "fake title 2",
      "body": "fake body 2 large large large large",
      "categoryId": 2,
      "authorId": 100,
      "seederFee": 43,
      "authorFee": 60,
      "status": 64,
      "cancelComment": "abcdef",
      "cancelDate": 1534478719143,
      "moderationStatus": 80,
      "moderatorId": 101
    }
  },
  {
    "model": "contents",
    "data": {
      "uuid": "41a0ff76-c4df-4bf2-a810-c0f054033a30",
      "hash": "41a05c06d2b76d524833329c39ffaf4847957ee6",
      "title": "fake title 2",
      "body": "fake body 2 large large large large",
      "categoryId": 2,
      "authorId": 100,
      "seederFee": 43,
      "authorFee": 60,
      "moderationStatus": 80,
      "status": 48,
      "cancelComment": "abcdef",
      "cancelDate": 1534478719143,
      "moderatorId": 101
    }
  },
  {
    "model": "contents",
    "data": {
      "uuid": "41a0ff76-a4df-2bf2-a810-c0f054033a31",
      "hash": "41a05c06d2b76d2248f3329c39ffaf4847957ee7",
      "title": "Fake content",
      "body": "Fake body large large large large",
      "categoryId": 2,
      "authorId": 101,
      "seederFee": 43,
      "authorFee": 60,
      "status": 32,
      "moderationStatus": 80,
      "moderatorId": 101
    }
  }
]
