[
    {
        "model": "contents",
        "data": {
            "uuid": "0000000-0000-0000-0000-000000000001",
            "hash": "f2ffe177c944780a86f15107bbfcfd8b4c9e5300",
            "title": "Dummy title 1",
            "body": "Dummy body 1",
            "categoryId": 1,
            "downloadStatus": 1,
            "authorId": 100,
            "seederFee": 10,
            "authorFee": 10,
            "status": 32,
            "moderationStatus": 80 
        }
    },
    {
        "model": "contents",
        "data": {
            "uuid": "0000000-0000-0000-0000-000000000002",
            "hash": "f2ffe177c944780a86f15107bbfcfd8b4c9e5301",
            "title": "Dummy title 2",
            "body": "Dummy body 1",
            "categoryId": 2,
            "downloadStatus": 1,
            "authorId": 100,
            "seederFee": 10,
            "authorFee": 10,
            "status": 32,
            "moderationStatus": 80 
        }
    },
    {
        "model": "contents",
        "data": {
            "uuid": "0000000-0000-0000-0000-000000000003",
            "hash": "f2ffe177c944780a86f15107bbfcfd8b4c9e5303",
            "title": "Dummy title 3",
            "body": "Dummy body 3",
            "categoryId": 3,
            "downloadStatus": 1,
            "authorId": 100,
            "seederFee": 10,
            "authorFee": 10,
            "status": 32,
            "moderationStatus": 80 
        }
    },{
        "model": "contents",
        "data": {
            "uuid": "0000000-0000-0000-0000-000000000004",
            "hash": "f2ffe177c944780a86f15107bbfcfd8b4c9e5304",
            "title": "Dummy title 4",
            "body": "Dummy body 4",
            "categoryId": 4,
            "downloadStatus": 1,
            "authorId": 100,
            "seederFee": 10,
            "authorFee": 10,
            "status": 32,
            "moderationStatus": 80 
        }
    },{
        "model": "contents",
        "data": {
            "uuid": "0000000-0000-0000-0000-000000000005",
            "hash": "f2ffe177c944780a86f15107bbfcfd8b4c9e5305",
            "title": "Dummy title 5",
            "body": "Dummy body 5",
            "categoryId": 5,
            "downloadStatus": 1,
            "authorId": 100,
            "seederFee": 10,
            "authorFee": 10,
            "status": 32,
            "moderationStatus": 80 
        }
    },{
        "model": "contents",
        "data": {
            "uuid": "0000000-0000-0000-0000-000000000006",
            "hash": "f2ffe177c944780a86f15107bbfcfd8b4c9e5306",
            "title": "Dummy title 6",
            "body": "Dummy body 6",
            "categoryId": 6,
            "downloadStatus": 1,
            "authorId": 100,
            "seederFee": 10,
            "authorFee": 10,
            "status": 32,
            "moderationStatus": 80 
        }
    }
,
    {
        "model": "contents",
        "data": {
            "uuid": "0000000-0000-0000-0000-000000000007",
            "hash": "f2ffe177c944780a86f15107bbfcfd8b4c9e5307",
            "title": "Dummy title 7",
            "body": "Dummy body 7",
            "categoryId": 7,
            "downloadStatus": 1,
            "authorId": 100,
            "seederFee": 10,
            "authorFee": 10,
            "status": 32,
            "moderationStatus": 80 
        }
    }
,
    {
        "model": "contents",
        "data": {
            "uuid": "0000000-0000-0000-0000-000000000008",
            "hash": "f2ffe177c944780a86f15107bbfcfd8b4c9e5308",
            "title": "Dummy title 8",
            "body": "Dummy body 8",
            "categoryId": 8,
            "downloadStatus": 1,
            "authorId": 100,
            "seederFee": 10,
            "authorFee": 10,
            "status": 32,
            "moderationStatus": 80 
        }
    }
,
    {
        "model": "contents",
        "data": {
            "uuid": "0000000-0000-0000-0000-000000000009",
            "hash": "f2ffe177c944780a86f15107bbfcfd8b4c9e5309",
            "title": "Dummy title 9",
            "body": "Dummy body 9",
            "categoryId": 9,
            "downloadStatus": 1,
            "authorId": 100,
            "seederFee": 10,
            "authorFee": 10,
            "status": 32,
            "moderationStatus": 80 
        }
    }
,
    {
        "model": "contents",
        "data": {
            "uuid": "0000000-0000-0000-0000-000000000010",
            "hash": "f2ffe177c944780a86f15107bbfcfd8b4c9e5310",
            "title": "Dummy title 10",
            "body": "Dummy body 10",
            "categoryId": 10,
            "downloadStatus": 1,
            "authorId": 100,
            "seederFee": 10,
            "authorFee": 10,
            "status": 32,
            "moderationStatus": 80 
        }
    }
]
