[
    {
        "model": "serie",
        "data": {
            "uuid": "00000000-0000-0000-0000-000000000001",
            "title": "Dummy title 1",
            "body": "Dummy body 1",
            "categoryId": 1,
            "authorId": 100,
            "status": 32,
            "moderationStatus": 80 
        }
    },
        {
            "model": "media",
            "data": {
                "id": 10,
                "uuid": "00000000-0000-0000-0000-000000000001",
                "type": 1,
                "name": "Imagen Serie 2.1",
                "url": "http://image-bucket.com/serie-media/imgsc21.jpg",
                "isDraft": false,
                "order": 2
            }
        },
        {
            "model": "season",
            "data": {
                "uuid": "10000000-0000-0000-0000-000000000001",
                "title": "Season 1",
                "serieUUID": "00000000-0000-0000-0000-000000000001",
                "authorId": 100,
                "number": 1
            }
        },
          {
            "model": "contents",
            "data": {
              "uuid": "ead2ea35-eaad-0000-896b-e17da3f9328f",
              "hash": "da39a3ee5e6b4b0d3255bfef95601890afd80723",
              "title": "Raw (2016)",
              "body": "Justine is a first-year veterinary student. Her elder sister is studying the same course at the university. Justine was raised a strict vegetarian but, as part of the hazing rituals, is forced to eat meat. Initially this has adverse effects but she soon develops a craving for meat...particularly human flesh.",
              "categoryId": 5,
              "contentType": 2,
              "authorId": 101,
              "seederFee": 69,
              "authorFee": 11,
              "status": 32,
              "downloadStatus": 1,
              "moderationStatus": 80,
              "order": 2,
              "serieUUID": "00000000-0000-0000-0000-000000000001",
              "seasonUUID": "10000000-0000-0000-0000-000000000001"
            }
          },
              {
                  "model": "media",
                  "keys": ["id"],
                  "data": {
                    "id": 11,
                    "uuid": "ead2ea35-eaad-0000-896b-e17da3f9328f",
                    "type": 2,
                    "name": "Imagen Content 2.1",
                    "url": "http://image-bucket.com/serie-media/imgsc21.jpg",
                    "isDraft": false,
                    "order": 2,
                    "processed": true
                  }
              },
              {
                "model": "media",
                "keys": ["id"],
                "data": {
                  "id": 12,
                  "uuid": "ead2ea35-eaad-0000-896b-e17da3f9328f",
                  "type": 2,
                  "name": "Imagen Content 2.2",
                  "url": "http://image-bucket.com/serie-media/imgsc22.jpg",
                  "isDraft": false,
                  "order": 1,
                  "processed": true
                }
              }
]
