[
    {
        "model": "serie",
        "data": {
            "uuid": "0000000-0000-0000-0000-000000000001",
            "title": "Dummy title 1",
            "body": "Dummy body 1",
            "categoryId": 1,
            "authorId": 100,
            "status": 32,
            "moderationStatus": 80
        }
    },
    {
        "model": "season",
        "data": {
            "uuid": "1000000-0000-0000-0000-000000000001",
            "title": "Season 1",
            "serieUUID": "0000000-0000-0000-0000-000000000001",
            "authorId": 100,
            "number": 1
        }
    },
        {
            "model": "geoblocking",
            "data": {
                "entityType": 32,
                "targetUUID": "1000000-0000-0000-0000-000000000001",
                "type": 32,
                "countries": [
                    10,
                    41
                ]
            }
        },
    {
        "model": "season",
        "data": {
            "uuid": "1000000-0000-0000-0000-000000000002",
            "title": "Season 2",
            "serieUUID": "0000000-0000-0000-0000-000000000001",
            "authorId": 100,
            "number": 2
        }
    },
        {
            "model": "geoblocking",
            "data": {
                "entityType": 32,
                "targetUUID": "1000000-0000-0000-0000-000000000002",
                "type": 16,
                "countries": [
                    10,
                    41
                ]
            }
        },
    {
        "model": "season",
        "data": {
            "uuid": "1000000-0000-0000-0000-000000000003",
            "title": "Season 3",
            "serieUUID": "0000000-0000-0000-0000-000000000001",
            "authorId": 100,
            "number": 3
        }
    }
]
