[
    {
        "model": "serie",
        "data": {
            "uuid": "0000000-0000-0000-0000-000000000001",
            "title": "Dummy title 1",
            "body": "Dummy body 1",
            "categoryId": 1,
            "authorId": 100,
            "status": 32,
            "moderationStatus": 80 
        }
    },
    {
        "model": "season",
        "data": {
            "uuid": "1000000-0000-0000-0000-000000000001",
            "title": "Season 1",
            "serieUUID": "0000000-0000-0000-0000-000000000001",
            "authorId": 100,
            "number": 1
        }
    }
]
