[
    {
        "model": "serie",
        "data": {
            "uuid": "0000000-0000-0000-0000-000000000001",
            "title": "Dummy title 1",
            "body": "Dummy body 1",
            "categoryId": 1,
            "authorId": 100,
            "status": 32,
            "moderationStatus": 80 
        }
    },
        {
            "model": "season",
            "data": {
                "uuid": "0000000-0000-0000-0001-000000000001",
                "serieUUID": "0000000-0000-0000-0000-000000000001",
                "number": 1,
                "authorId": 100
            }
        },

    {
        "model": "contents",
        "saveOptions": {
            "silent": true
        },
        "data": {
            "createdAt": "2019-08-28T13:44:13.219Z",
            "updatedAt": "2019-08-28T13:44:13.219Z",
            "uuid": "3000000-c3d1-0000-0000-000000000001",
            "hash": "ebff5c06d2b76d524833329c39ffaf4847957ee4",
            "serieUUID": "0000000-0000-0000-0000-000000000001",
            "seasonUUID": "0000000-0000-0000-0001-000000000001",
            "title": "S01E01",
            "credits": "Warner Bross",
            "duration": 3645,
            "downloadStatus": 1,
            "categoryId": 2,
            "authorId": 100,
            "seederFee": 43,
            "authorFee": 60,
            "status": 32,
            "moderationStatus": 80,
            "payType": 1,
            "privacy": 2,
            "releaseDate": "1111-11-11 00:00:00:47.972Z",
            "contentType": 1
        }
    },
        {
            "model": "metadata",
            "data": {
                "uuid": "5000000-c3d1-0000-0001-000000000002",
                "entityType": 2,
                "entityId": "3000000-c3d1-0000-0000-000000000001",
                "lang": "en",
                "title": "English title",
                "body": "English body"
            }
        },


    {
        "model": "serie",
        "data": {
            "uuid": "0000000-0000-0000-0000-000000000002",
            "title": "Dummy title 0",
            "body": "Dummy body 0",
            "categoryId": 1,
            "authorId": 100,
            "status": 32,
            "moderationStatus": 80 
        }
    },
        {
            "model": "season",
            "data": {
                "uuid": "0000000-0000-0000-0002-000000000001",
                "serieUUID": "0000000-0000-0000-0000-000000000002",
                "number": 1,
                "authorId": 100
            }
        },

    {
        "model": "contents",
        "saveOptions": {
            "silent": true
        },
        "data": {
            "createdAt": "2019-08-28T13:44:13.219Z",
            "updatedAt": "2019-08-28T13:44:13.219Z",
            "uuid": "3000000-c3d1-0000-0003-000000000001",
            "hash": "ebff5c06d2b76d524833329c39ffaf4847957ee1",
            "serieUUID": "0000000-0000-0000-0000-000000000002",
            "seasonUUID": "0000000-0000-0000-0002-000000000001",
            "title": "S01E01",
            "credits": "Warner Bross",
            "duration": 3645,
            "downloadStatus": 1,
            "categoryId": 2,
            "authorId": 100,
            "seederFee": 43,
            "authorFee": 60,
            "status": 32,
            "moderationStatus": 80,
            "payType": 1,
            "privacy": 2,
            "releaseDate": "1111-11-11 00:00:00:47.972Z",
            "contentType": 1
        }
    },
        {
            "model": "metadata",
            "data": {
                "uuid": "5000000-c3d1-0000-0002-000000000002",
                "entityType": 2,
                "entityId": "3000000-c3d1-0000-0003-000000000001",
                "lang": "en",
                "title": "English title",
                "body": "English body"
            }
        },

    {
        "model": "serie",
        "data": {
            "uuid": "0000000-0000-0000-0000-000000000003",
            "title": "Dummy title 2",
            "body": "Dummy body 2",
            "categoryId": 1,
            "authorId": 100,
            "status": 32,
            "moderationStatus": 80 
        }
    },
        {
            "model": "season",
            "data": {
                "uuid": "0000000-0000-0000-0003-000000000001",
                "serieUUID": "0000000-0000-0000-0000-000000000003",
                "number": 1,
                "authorId": 100
            }
        },

    {
        "model": "contents",
        "saveOptions": {
            "silent": true
        },
        "data": {
            "createdAt": "2019-08-28T13:44:13.219Z",
            "updatedAt": "2019-08-28T13:44:13.219Z",
            "uuid": "3000000-c3d1-0000-0004-000000000001",
            "hash": "ecff5c06d2b761526833329c32ffaf4847957ee3",
            "serieUUID": "0000000-0000-0000-0000-000000000003",
            "seasonUUID": "0000000-0000-0000-0003-000000000001",
            "title": "S01E01",
            "credits": "Warner Bross",
            "duration": 3645,
            "downloadStatus": 1,
            "categoryId": 2,
            "authorId": 100,
            "seederFee": 43,
            "authorFee": 60,
            "status": 32,
            "moderationStatus": 80,
            "payType": 1,
            "privacy": 2,
            "releaseDate": "1111-11-11 00:00:00:47.972Z",
            "contentType": 1
        }
    },
        {
            "model": "metadata",
            "data": {
                "uuid": "5000000-c3d1-0000-0002-000000000003",
                "entityType": 2,
                "entityId": "3000000-c3d1-0000-0004-000000000001",
                "lang": "en",
                "title": "English title",
                "body": "English body"
            }
        },


    {
        "model": "carruselitem",
        "data": {
            "carruselUUID": "862924dc-1553-463f-b5e5-a23cf7487f65",
            "entityType": 2,
            "entityId" : "0000000-0000-0000-0000-000000000001",
            "order": 3 
        }
    },
    {
        "model": "carruselitem",
        "data": {
            "carruselUUID": "862924dc-1553-463f-b5e5-a23cf7487f65",
            "entityType": 2,
            "entityId" : "0000000-0000-0000-0000-000000000002",
            "order": 1 
        }
    },
    {
        "model": "carruselitem",
        "data": {
            "carruselUUID": "862924dc-1553-463f-b5e5-a23cf7487f65",
            "entityType": 2,
            "entityId" : "0000000-0000-0000-0000-000000000003",
            "order": 2 
        }
    }

]
