[
    {
        "model": "tempmedia",
        "data": {
          "hash": "b2177406fc4d44036822a908494b15c2e3ee9027",
          "userId": 100,
          "type": 2,
          "name": "Imagen 1",
          "id": 1,
          "url": "http://image-bucket.com/tmpimg1.jpg"
        }
    },
    {
        "model": "tempmedia",
        "data": {
          "hash": "b2177406fc4d44036822a908494b15c2e3ee9027",
          "userId": 100,
          "type": 2,
          "name": "Imagen 2",
          "id": 2,
          "url": "http://image-bucket.com/tmpimg2.jpg"
        }
    },
    {
        "model": "tempmedia",
        "data": {
          "hash": "b2177406fc4d44036822a908494b15c2e3ee9027",
          "userId": 100,
          "type": 2,
          "name": "Imagen 3",
          "id": 3,
          "url": "http://image-bucket.com/tmpimg3.jpg"
        }
    },
    {
        "model": "tempmedia",
        "data": {
          "hash": "b2177406fc4d44036822a908494b15c2e3ee9027",
          "userId": 100,
          "type": 1,
          "name": "Imagen 4",
          "id": 4,
          "url": "http://image-bucket.com/tmpimg4.jpg"
        }
    },
    {
        "model": "tempmedia",
        "data": {
          "hash": "a1235c06c2b76d524833329c39ffaf4847957ba1",
          "userId": 100,
          "type": 2,
          "name": "Imagen 5",
          "id": 5,
          "url": "http://image-bucket.com/tmpimg5.jpg"
        }
    },
    {
        "model": "tempmedia",
        "data": {
          "hash": "abcf5c06d2b76d524833329c39ffaf4847957ee2",
          "userId": 103,
          "type": 2,
          "name": "Imagen 6",
          "id": 6,
          "url": "http://image-bucket.com/tmpimg6.jpg"
        }
    },
    {
        "model": "tempmedia",
        "data": {
          "uuid": "10000000-0080-0000-0000-000000000000",
          "userId": 100,
          "type": 2,
          "name": "Imagen 31",
          "id": 31,
          "order": 9,
          "url": "http://image-bucket.com/tmpimg31.jpg"
        }
    },
    {
        "model": "tempmedia",
        "data": {
          "uuid": "10000000-0080-0000-0000-000000000000",
          "userId": 100,
          "type": 1,
          "name": "Imagen 32",
          "id": 32,
          "order": 10,
          "url": "http://image-bucket.com/tmpimg32.jpg"
        }
    },
    {
        "model": "tempmedia",
        "data": {
          "hash": "b2177406fc4d44036822a908494b15c2e3ee9027",
          "userId": 100,
          "type": 2,
          "name": "Imagen 41",
          "id": 41,
          "url": "http://image-bucket.com/tmpimg41.jpg"
        }
    },
    {
        "model": "tempmedia",
        "data": {
          "hash": "b2177406fc4d44036822a908494b15c2e3ee9027",
          "userId": 100,
          "type": 2,
          "name": "Imagen 42",
          "id": 42,
          "url": "http://image-bucket.com/tmpimg42.jpg"
        }
    },
    {
        "model": "tempmedia",
        "data": {
          "hash": "b2177406fc4d44036822a908494b15c2e3ee9027",
          "userId": 100,
          "type": 2,
          "name": "Imagen 43",
          "id": 43,
          "url": "http://image-bucket.com/tmpimg43.jpg"
        }
    },
    {
        "model": "tempmedia",
        "data": {
          "hash": "b2177406fc4d44036822a908494b15c2e3ee9027",
          "userId": 100,
          "type": 1,
          "name": "Imagen 44",
          "id": 44,
          "url": "http://image-bucket.com/tmpimg44.jpg"
        }
    }
]
