[
    {
        "model": "tempsubtitle",
        "data": {
          "hash": "b2177406fc4d44036822a908494b15c2e3ee9027",
          "userId": 100,
          "lang": "es",
          "label": "Subtitulo 1",
          "id": 1,
          "url": "http://subtitle-bucket.com/tmpsubtitle1.srt",
	  "closeCaption": false
        }
    },
    {
        "model": "tempsubtitle",
        "data": {
          "hash": "b2177406fc4d44036822a908494b15c2e3ee9027",
          "userId": 100,
          "lang": "es",
          "label": "Subtitulo 2",
          "id": 2,
          "url": "http://subtitle-bucket.com/tmpsubtitle2.srt",
	  "closeCaption": false
        }
    },
    {
        "model": "tempsubtitle",
        "data": {
          "hash": "b2177406fc4d44036822a908494b15c2e3ee9027",
          "userId": 100,
          "lang": "es",
          "label": "Subtitulo 3",
          "id": 3,
          "url": "http://subtitle-bucket.com/tmpsubtitle3.srt",
	  "closeCaption": false
        }
    },
    {
        "model": "tempsubtitle",
        "data": {
          "hash": "b2177406fc4d44036822a908494b15c2e3ee9027",
          "userId": 100,
          "lang": "en",
          "label": "Subtitulo 4",
          "id": 4,
          "url": "http://subtitle-bucket.com/tmpsubtitle4.srt",
	  "closeCaption": true 
        }
    },
    {
        "model": "tempsubtitle",
        "data": {
          "hash": "a1235c06c2b76d524833329c39ffaf4847957ba1",
          "userId": 100,
          "lang": "en",
          "label": "Subtitulo 5",
          "id": 5,
          "url": "http://subtitle-bucket.com/tmpsubtitle5.srt",
	  "closeCaption": true 
        }
    },
    {
        "model": "tempsubtitle",
        "data": {
          "hash": "abcf5c06d2b76d524833329c39ffaf4847957ee2",
          "userId": 103,
          "lang": "en",
          "label": "Subtitulo 6",
          "id": 6,
          "url": "http://subtitle-bucket.com/tmpsubtitle6.srt",
	  "closeCaption": false 
        }
    },
    {
        "model": "tempsubtitle",
        "data": {
          "uuid": "10000000-0080-0000-0000-000000000000",
          "userId": 100,
          "lang": "pt",
          "label": "Subtitulo 31",
          "id": 31,
          "url": "http://subtitle-bucket.com/tmpsubtitle31.srt",
	  "closeCaption": true 
        }
    },
    {
        "model": "tempsubtitle",
        "data": {
          "uuid": "10000000-0080-0000-0000-000000000000",
          "userId": 100,
          "lang": "it",
          "label": "Subtitulo 32",
          "id": 32,
          "url": "http://subtitle-bucket.com/tmpsubtitle32.srt",
	  "closeCaption": false 
        }
    }
]
